Mini-Project 01 – Netflix Top 10 EDA – STA 9750 Portfolio
…
The numbers for Squid Game are absolutely bonkers - we’re talking billions of hours across all seasons.

8. The movie Red Notice has a runtime of 1 hour and 58 minutes. Approximately how many views did it receive in 2021?

# A tibble: 1 × 2
  total_views views_millions
        <dbl>          <dbl>
1           0             NA

Red Notice was Netflix’s big action bet that year, and the view counts show it paid off.

9. How many Films reached Number 1 in the US but did not originally debut there? That is, find films that first appeared on the Top 10 chart at, e.g., Number 4 but then became more popular and eventually hit Number 1? What is the most recent film to pull this off?

# A tibble: 44 × 4
   show_title                  first_rank hit_number_1 latest_week
   <chr>                            <dbl> <lgl>        <date>     
 1 KPop Demon Hunters                   6 TRUE         2025-08-24 
 2 Plane                                2 TRUE         2025-06-22 
 3 The Wild Robot                       3 TRUE         2025-06-01 
 4 Despicable Me 4                      2 TRUE         2025-03-09 
 5 Aftermath                            4 TRUE         2025-02-16 
 6 Despicable Me 2                      2 TRUE         2025-01-12 
 7 Don't Move                           3 TRUE         2024-11-03 
 8 The Garfield Movie                   4 TRUE         2024-10-06 
 9 Uglies                               2 TRUE         2024-09-22 
10 Jack Reacher: Never Go Back          2 TRUE         2024-08-11 
# ℹ 34 more rows
…
